G04 #@! TF.GenerationSoftware,KiCad,Pcbnew,5.1.5+dfsg1-2build2*
G04 #@! TF.CreationDate,2022-04-22T15:10:21+01:00*
G04 #@! TF.ProjectId,khipu,6b686970-752e-46b6-9963-61645f706362,rev?*
G04 #@! TF.SameCoordinates,Original*
G04 #@! TF.FileFunction,Profile,NP*
%FSLAX46Y46*%
G04 Gerber Fmt 4.6, Leading zero omitted, Abs format (unit mm)*
G04 Created by KiCad (PCBNEW 5.1.5+dfsg1-2build2) date 2022-04-22 15:10:21*
%MOMM*%
%LPD*%
G04 APERTURE LIST*
%ADD10C,0.200000*%
%ADD11C,0.050000*%
G04 APERTURE END LIST*
D10*
X110271660Y-146525092D02*
X110258571Y-146715167D01*
X110258571Y-146715167D02*
X110248075Y-146905399D01*
X110248075Y-146905399D02*
X110240072Y-147098533D01*
X110240072Y-147098533D02*
X110236000Y-147236160D01*
X138235842Y-147236160D02*
X138232722Y-147035589D01*
X138232722Y-147035589D02*
X138226842Y-146838088D01*
X138226842Y-146838088D02*
X138218176Y-146640689D01*
X138218176Y-146640689D02*
X138208452Y-146470315D01*
X138208452Y-146470315D02*
X138225495Y-146282763D01*
X138225495Y-146282763D02*
X138234732Y-146090737D01*
X138234732Y-146090737D02*
X138235842Y-146000061D01*
X138235842Y-146000061D02*
X138235842Y-93472000D01*
X110236000Y-147236160D02*
X110237410Y-147436861D01*
X110237410Y-147436861D02*
X110241551Y-147634074D01*
X110241551Y-147634074D02*
X110248637Y-147836215D01*
X110248637Y-147836215D02*
X110258257Y-148032035D01*
X110258257Y-148032035D02*
X110270549Y-148227142D01*
X110270549Y-148227142D02*
X110285033Y-148415972D01*
X110285033Y-148415972D02*
X110302544Y-148609617D01*
X110302544Y-148609617D02*
X110322063Y-148796995D01*
X110322063Y-148796995D02*
X110343356Y-148978153D01*
X110343356Y-148978153D02*
X110366947Y-149158599D01*
X110366947Y-149158599D02*
X110393642Y-149343751D01*
X110393642Y-149343751D02*
X110420966Y-149517291D01*
X110420966Y-149517291D02*
X110451361Y-149695508D01*
X110451361Y-149695508D02*
X110483995Y-149872950D01*
X110483995Y-149872950D02*
X110518853Y-150049607D01*
X110518853Y-150049607D02*
X110559395Y-150241402D01*
X110559395Y-150241402D02*
X110597624Y-150411069D01*
X110597624Y-150411069D02*
X110637900Y-150579953D01*
X110637900Y-150579953D02*
X110678856Y-150742799D01*
X110678856Y-150742799D02*
X110721707Y-150904882D01*
X110721707Y-150904882D02*
X110766442Y-151066191D01*
X110766442Y-151066191D02*
X110813046Y-151226713D01*
X110813046Y-151226713D02*
X110859918Y-151381295D01*
X110859918Y-151381295D02*
X110910168Y-151540233D01*
X110910168Y-151540233D02*
X110960541Y-151693259D01*
X110960541Y-151693259D02*
X111016153Y-151855623D01*
X111016153Y-151855623D02*
X111071866Y-152012053D01*
X111071866Y-152012053D02*
X111135034Y-152182628D01*
X111135034Y-152182628D02*
X111192553Y-152332264D01*
X111192553Y-152332264D02*
X111253729Y-152486014D01*
X111253729Y-152486014D02*
X111312551Y-152629030D01*
X111312551Y-152629030D02*
X111372902Y-152771248D01*
X111372902Y-152771248D02*
X111436928Y-152917520D01*
X111436928Y-152917520D02*
X111502567Y-153062916D01*
X111502567Y-153062916D02*
X111569809Y-153207426D01*
X111569809Y-153207426D02*
X111638641Y-153351037D01*
X111638641Y-153351037D02*
X111709052Y-153493738D01*
X111709052Y-153493738D02*
X111778607Y-153630808D01*
X111778607Y-153630808D02*
X111852089Y-153771689D01*
X111852089Y-153771689D02*
X111924596Y-153906978D01*
X111924596Y-153906978D02*
X111998531Y-154041369D01*
X111998531Y-154041369D02*
X112071268Y-154170275D01*
X112071268Y-154170275D02*
X112147993Y-154302888D01*
X112147993Y-154302888D02*
X112223405Y-154430054D01*
X112223405Y-154430054D02*
X112300115Y-154556350D01*
X112300115Y-154556350D02*
X112378116Y-154681769D01*
X112378116Y-154681769D02*
X112460253Y-154810732D01*
X112460253Y-154810732D02*
X112546656Y-154943129D01*
X112546656Y-154943129D02*
X112628607Y-155065764D01*
X112628607Y-155065764D02*
X112711808Y-155187477D01*
X112711808Y-155187477D02*
X112796251Y-155308269D01*
X112796251Y-155308269D02*
X112888097Y-155436652D01*
X112888097Y-155436652D02*
X112975087Y-155555496D01*
X112975087Y-155555496D02*
X113063291Y-155673390D01*
X113063291Y-155673390D02*
X113152700Y-155790320D01*
X113152700Y-155790320D02*
X113259613Y-155926882D01*
X113259613Y-155926882D02*
X113354924Y-156045768D01*
X113354924Y-156045768D02*
X113448146Y-156159542D01*
X113448146Y-156159542D02*
X113545927Y-156276325D01*
X113545927Y-156276325D02*
X113641514Y-156388051D01*
X113641514Y-156388051D02*
X113734776Y-156494822D01*
X113734776Y-156494822D02*
X113829096Y-156600635D01*
X113829096Y-156600635D02*
X113924467Y-156705484D01*
X113924467Y-156705484D02*
X114024470Y-156813187D01*
X114024470Y-156813187D02*
X114125587Y-156919836D01*
X114125587Y-156919836D02*
X114227806Y-157025419D01*
X114227806Y-157025419D02*
X114327412Y-157126215D01*
X114327412Y-157126215D02*
X114431769Y-157229678D01*
X114431769Y-157229678D02*
X114533418Y-157328413D01*
X114533418Y-157328413D02*
X114639881Y-157429721D01*
X114639881Y-157429721D02*
X114762847Y-157544144D01*
X114762847Y-157544144D02*
X114871564Y-157643062D01*
X114871564Y-157643062D02*
X114981319Y-157740851D01*
X114981319Y-157740851D02*
X115100053Y-157844362D01*
X115100053Y-157844362D02*
X115215943Y-157943166D01*
X115215943Y-157943166D02*
X115328864Y-158037386D01*
X115328864Y-158037386D02*
X115442783Y-158130436D01*
X115442783Y-158130436D02*
X115565938Y-158228825D01*
X115565938Y-158228825D02*
X115690221Y-158325853D01*
X115690221Y-158325853D02*
X115807224Y-158415173D01*
X115807224Y-158415173D02*
X115925189Y-158503288D01*
X115925189Y-158503288D02*
X116052636Y-158596346D01*
X116052636Y-158596346D02*
X116176864Y-158684964D01*
X116176864Y-158684964D02*
X116306429Y-158775249D01*
X116306429Y-158775249D02*
X116454549Y-158875838D01*
X116454549Y-158875838D02*
X116577541Y-158957290D01*
X116577541Y-158957290D02*
X116705878Y-159040317D01*
X116705878Y-159040317D02*
X116835173Y-159121977D01*
X116835173Y-159121977D02*
X116965416Y-159202256D01*
X116965416Y-159202256D02*
X117092057Y-159278453D01*
X117092057Y-159278453D02*
X117233277Y-159361293D01*
X117233277Y-159361293D02*
X117366332Y-159437331D01*
X117366332Y-159437331D02*
X117495664Y-159509403D01*
X117495664Y-159509403D02*
X117630493Y-159582644D01*
X117630493Y-159582644D02*
X117766209Y-159654446D01*
X117766209Y-159654446D02*
X117902802Y-159724799D01*
X117902802Y-159724799D02*
X118040261Y-159793692D01*
X118040261Y-159793692D02*
X118183363Y-159863417D01*
X118183363Y-159863417D02*
X118327367Y-159931556D01*
X118327367Y-159931556D02*
X118467421Y-159995907D01*
X118467421Y-159995907D02*
X118608300Y-160058759D01*
X118608300Y-160058759D02*
X118754892Y-160122187D01*
X118754892Y-160122187D02*
X118902346Y-160183986D01*
X118902346Y-160183986D02*
X119045691Y-160242166D01*
X119045691Y-160242166D02*
X119199787Y-160302652D01*
X119199787Y-160302652D02*
X119349752Y-160359499D01*
X119349752Y-160359499D02*
X119500535Y-160414673D01*
X119500535Y-160414673D02*
X119657184Y-160469912D01*
X119657184Y-160469912D02*
X119809586Y-160521646D01*
X119809586Y-160521646D02*
X119962770Y-160571672D01*
X119962770Y-160571672D02*
X120121867Y-160621560D01*
X120121867Y-160621560D02*
X120281772Y-160669598D01*
X120281772Y-160669598D02*
X120442476Y-160715776D01*
X120442476Y-160715776D02*
X120614408Y-160762875D01*
X120614408Y-160762875D02*
X120776715Y-160805171D01*
X120776715Y-160805171D02*
X120939779Y-160845567D01*
X120939779Y-160845567D02*
X121114186Y-160886470D01*
X121114186Y-160886470D02*
X121284097Y-160924051D01*
X121284097Y-160924051D02*
X121454777Y-160959567D01*
X121454777Y-160959567D02*
X121626207Y-160993002D01*
X121626207Y-160993002D02*
X121798377Y-161024345D01*
X121798377Y-161024345D02*
X121982101Y-161055339D01*
X121982101Y-161055339D02*
X122155753Y-161082324D01*
X122155753Y-161082324D02*
X122346482Y-161109394D01*
X122346482Y-161109394D02*
X122527059Y-161132562D01*
X122527059Y-161132562D02*
X122713852Y-161154026D01*
X122713852Y-161154026D02*
X122901381Y-161173030D01*
X122901381Y-161173030D02*
X123089630Y-161189560D01*
X123089630Y-161189560D02*
X123278585Y-161203595D01*
X123278585Y-161203595D02*
X123479404Y-161215723D01*
X123479404Y-161215723D02*
X123692195Y-161225452D01*
X123692195Y-161225452D02*
X123894537Y-161231737D01*
X123894537Y-161231737D02*
X124108892Y-161235253D01*
X124108892Y-161235253D02*
X124236181Y-161235822D01*
X124236181Y-161235822D02*
X124436877Y-161234405D01*
X124436877Y-161234405D02*
X124634085Y-161230263D01*
X124634085Y-161230263D02*
X124830614Y-161223412D01*
X124830614Y-161223412D02*
X125026450Y-161213869D01*
X125026450Y-161213869D02*
X125216006Y-161202038D01*
X125216006Y-161202038D02*
X125410418Y-161187243D01*
X125410418Y-161187243D02*
X125637204Y-161166556D01*
X125637204Y-161166556D02*
X125824469Y-161146676D01*
X125824469Y-161146676D02*
X126005516Y-161125035D01*
X126005516Y-161125035D02*
X126185847Y-161101097D01*
X126185847Y-161101097D02*
X126365450Y-161074881D01*
X126365450Y-161074881D02*
X126538897Y-161047292D01*
X126538897Y-161047292D02*
X126711631Y-161017589D01*
X126711631Y-161017589D02*
X126888998Y-160984754D01*
X126888998Y-160984754D02*
X127060238Y-160950793D01*
X127060238Y-160950793D02*
X127225404Y-160915912D01*
X127225404Y-160915912D02*
X127432166Y-160869283D01*
X127432166Y-160869283D02*
X127595684Y-160830052D01*
X127595684Y-160830052D02*
X127758453Y-160788914D01*
X127758453Y-160788914D02*
X127920458Y-160745881D01*
X127920458Y-160745881D02*
X128081688Y-160700967D01*
X128081688Y-160700967D02*
X128236968Y-160655723D01*
X128236968Y-160655723D02*
X128396636Y-160607145D01*
X128396636Y-160607145D02*
X128555490Y-160556717D01*
X128555490Y-160556717D02*
X128713518Y-160504460D01*
X128713518Y-160504460D02*
X128875767Y-160448608D01*
X128875767Y-160448608D02*
X129027053Y-160394500D01*
X129027053Y-160394500D02*
X129177532Y-160338708D01*
X129177532Y-160338708D02*
X129322216Y-160283190D01*
X129322216Y-160283190D02*
X129466124Y-160226124D01*
X129466124Y-160226124D02*
X129614169Y-160165468D01*
X129614169Y-160165468D02*
X129756467Y-160105280D01*
X129756467Y-160105280D02*
X129897959Y-160043571D01*
X129897959Y-160043571D02*
X130057973Y-159971517D01*
X130057973Y-159971517D02*
X130202509Y-159904332D01*
X130202509Y-159904332D02*
X130350921Y-159833236D01*
X130350921Y-159833236D02*
X130493620Y-159762829D01*
X130493620Y-159762829D02*
X130630687Y-159693278D01*
X130630687Y-159693278D02*
X130762203Y-159624745D01*
X130762203Y-159624745D02*
X130897549Y-159552345D01*
X130897549Y-159552345D02*
X131027382Y-159481079D01*
X131027382Y-159481079D02*
X131160967Y-159405868D01*
X131160967Y-159405868D02*
X131289082Y-159331907D01*
X131289082Y-159331907D02*
X131429920Y-159248498D01*
X131429920Y-159248498D02*
X131560710Y-159169029D01*
X131560710Y-159169029D02*
X131690555Y-159088174D01*
X131690555Y-159088174D02*
X131823879Y-159003087D01*
X131823879Y-159003087D02*
X131947382Y-158922358D01*
X131947382Y-158922358D02*
X132069983Y-158840369D01*
X132069983Y-158840369D02*
X132195993Y-158754128D01*
X132195993Y-158754128D02*
X132321010Y-158666557D01*
X132321010Y-158666557D02*
X132445024Y-158577664D01*
X132445024Y-158577664D02*
X132572248Y-158484325D01*
X132572248Y-158484325D02*
X132690002Y-158395950D01*
X132690002Y-158395950D02*
X132815098Y-158299929D01*
X132815098Y-158299929D02*
X132939076Y-158202536D01*
X132939076Y-158202536D02*
X133057849Y-158107100D01*
X133057849Y-158107100D02*
X133171518Y-158013756D01*
X133171518Y-158013756D02*
X133288186Y-157915848D01*
X133288186Y-157915848D02*
X133399803Y-157820143D01*
X133399803Y-157820143D02*
X133506465Y-157726767D01*
X133506465Y-157726767D02*
X133612171Y-157632334D01*
X133612171Y-157632334D02*
X133720772Y-157533295D01*
X133720772Y-157533295D02*
X133824501Y-157436731D01*
X133824501Y-157436731D02*
X133927251Y-157339137D01*
X133927251Y-157339137D02*
X134043998Y-157225817D01*
X134043998Y-157225817D02*
X134225837Y-157043978D01*
X134225837Y-157043978D02*
X134324610Y-156942368D01*
X134324610Y-156942368D02*
X134422357Y-156839766D01*
X134422357Y-156839766D02*
X134519074Y-156736181D01*
X134519074Y-156736181D02*
X134618275Y-156627730D01*
X134618275Y-156627730D02*
X134712864Y-156522167D01*
X134712864Y-156522167D02*
X134820163Y-156399783D01*
X134820163Y-156399783D02*
X134915868Y-156288166D01*
X134915868Y-156288166D02*
X135010420Y-156175539D01*
X135010420Y-156175539D02*
X135103806Y-156061906D01*
X135103806Y-156061906D02*
X135202556Y-155939056D01*
X135202556Y-155939056D02*
X135296724Y-155819229D01*
X135296724Y-155819229D02*
X135386430Y-155702540D01*
X135386430Y-155702540D02*
X135481210Y-155576450D01*
X135481210Y-155576450D02*
X135568412Y-155457774D01*
X135568412Y-155457774D02*
X135654396Y-155338156D01*
X135654396Y-155338156D02*
X135739144Y-155217597D01*
X135739144Y-155217597D02*
X135822656Y-155096114D01*
X135822656Y-155096114D02*
X135904915Y-154973709D01*
X135904915Y-154973709D02*
X135985916Y-154850399D01*
X135985916Y-154850399D02*
X136068471Y-154721735D01*
X136068471Y-154721735D02*
X136149658Y-154592118D01*
X136149658Y-154592118D02*
X136232192Y-154457036D01*
X136232192Y-154457036D02*
X136310556Y-154325506D01*
X136310556Y-154325506D02*
X136387521Y-154193055D01*
X136387521Y-154193055D02*
X136465656Y-154055074D01*
X136465656Y-154055074D02*
X136537206Y-153925419D01*
X136537206Y-153925419D02*
X136607420Y-153794931D01*
X136607420Y-153794931D02*
X136678725Y-153658916D01*
X136678725Y-153658916D02*
X136753341Y-153512556D01*
X136753341Y-153512556D02*
X136823960Y-153369980D01*
X136823960Y-153369980D02*
X136897545Y-153216894D01*
X136897545Y-153216894D02*
X136962672Y-153077275D01*
X136962672Y-153077275D02*
X137028470Y-152931969D01*
X137028470Y-152931969D02*
X137094769Y-152780899D01*
X137094769Y-152780899D02*
X137155220Y-152638739D01*
X137155220Y-152638739D02*
X137214145Y-152495780D01*
X137214145Y-152495780D02*
X137271530Y-152352034D01*
X137271530Y-152352034D02*
X137327371Y-152207510D01*
X137327371Y-152207510D02*
X137383496Y-152057194D01*
X137383496Y-152057194D02*
X137437942Y-151906068D01*
X137437942Y-151906068D02*
X137492426Y-151749066D01*
X137492426Y-151749066D02*
X137545095Y-151591225D01*
X137545095Y-151591225D02*
X137594326Y-151437686D01*
X137594326Y-151437686D02*
X137643384Y-151278228D01*
X137643384Y-151278228D02*
X137689091Y-151123146D01*
X137689091Y-151123146D02*
X137734490Y-150962119D01*
X137734490Y-150962119D02*
X137780752Y-150789847D01*
X137780752Y-150789847D02*
X137822258Y-150627225D01*
X137822258Y-150627225D02*
X137864348Y-150453284D01*
X137864348Y-150453284D02*
X137905442Y-150273199D01*
X137905442Y-150273199D02*
X137940885Y-150108241D01*
X137940885Y-150108241D02*
X137975432Y-149937213D01*
X137975432Y-149937213D02*
X138009853Y-149754679D01*
X138009853Y-149754679D02*
X138040993Y-149576721D01*
X138040993Y-149576721D02*
X138069888Y-149398002D01*
X138069888Y-149398002D02*
X138097291Y-149213085D01*
X138097291Y-149213085D02*
X138122276Y-149027392D01*
X138122276Y-149027392D02*
X138144197Y-148846431D01*
X138144197Y-148846431D02*
X138163809Y-148664769D01*
X138163809Y-148664769D02*
X138183509Y-148454729D01*
X138183509Y-148454729D02*
X138198508Y-148266048D01*
X138198508Y-148266048D02*
X138211332Y-148071092D01*
X138211332Y-148071092D02*
X138223432Y-147830593D01*
X138223432Y-147830593D02*
X138230283Y-147634064D01*
X138230283Y-147634064D02*
X138234425Y-147436856D01*
X138234425Y-147436856D02*
X138235842Y-147236160D01*
X133999925Y-89236083D02*
X114471918Y-89236083D01*
X138235842Y-93472000D02*
X138231402Y-93275442D01*
X138231402Y-93275442D02*
X138218676Y-93086277D01*
X138218676Y-93086277D02*
X138198602Y-92905320D01*
X138198602Y-92905320D02*
X138171929Y-92731686D01*
X138171929Y-92731686D02*
X138139051Y-92563709D01*
X138139051Y-92563709D02*
X138098425Y-92393455D01*
X138098425Y-92393455D02*
X138054143Y-92236121D01*
X138054143Y-92236121D02*
X138004834Y-92083661D01*
X138004834Y-92083661D02*
X137948249Y-91929302D01*
X137948249Y-91929302D02*
X137886887Y-91780068D01*
X137886887Y-91780068D02*
X137823896Y-91641751D01*
X137823896Y-91641751D02*
X137757262Y-91508304D01*
X137757262Y-91508304D02*
X137686519Y-91378307D01*
X137686519Y-91378307D02*
X137611838Y-91251814D01*
X137611838Y-91251814D02*
X137532942Y-91128212D01*
X137532942Y-91128212D02*
X137448081Y-91005008D01*
X137448081Y-91005008D02*
X137360965Y-90887549D01*
X137360965Y-90887549D02*
X137269933Y-90773273D01*
X137269933Y-90773273D02*
X137175074Y-90662278D01*
X137175074Y-90662278D02*
X137079221Y-90557542D01*
X137079221Y-90557542D02*
X136978806Y-90454980D01*
X136978806Y-90454980D02*
X136873220Y-90354258D01*
X136873220Y-90354258D02*
X136767203Y-90259791D01*
X136767203Y-90259791D02*
X136654930Y-90166398D01*
X136654930Y-90166398D02*
X136541325Y-90078293D01*
X136541325Y-90078293D02*
X136422711Y-89992649D01*
X136422711Y-89992649D02*
X136299038Y-89909763D01*
X136299038Y-89909763D02*
X136173686Y-89831980D01*
X136173686Y-89831980D02*
X136046151Y-89758880D01*
X136046151Y-89758880D02*
X135913709Y-89689040D01*
X135913709Y-89689040D02*
X135777061Y-89623120D01*
X135777061Y-89623120D02*
X135636226Y-89561375D01*
X135636226Y-89561375D02*
X135491984Y-89504351D01*
X135491984Y-89504351D02*
X135339006Y-89450451D01*
X135339006Y-89450451D02*
X135182586Y-89402058D01*
X135182586Y-89402058D02*
X135023605Y-89359585D01*
X135023605Y-89359585D02*
X134858152Y-89322332D01*
X134858152Y-89322332D02*
X134684531Y-89290630D01*
X134684531Y-89290630D02*
X134505984Y-89265721D01*
X134505984Y-89265721D02*
X134314976Y-89247510D01*
X134314976Y-89247510D02*
X134118126Y-89237680D01*
X134118126Y-89237680D02*
X133999925Y-89236083D01*
X110236000Y-146000061D02*
X110241522Y-146195995D01*
X110241522Y-146195995D02*
X110256039Y-146384208D01*
X110256039Y-146384208D02*
X110271660Y-146525092D01*
X114471918Y-89236083D02*
X114275360Y-89240515D01*
X114275360Y-89240515D02*
X114086194Y-89253242D01*
X114086194Y-89253242D02*
X113905237Y-89273316D01*
X113905237Y-89273316D02*
X113731603Y-89299987D01*
X113731603Y-89299987D02*
X113563626Y-89332867D01*
X113563626Y-89332867D02*
X113396545Y-89372666D01*
X113396545Y-89372666D02*
X113236038Y-89417774D01*
X113236038Y-89417774D02*
X113084346Y-89466818D01*
X113084346Y-89466818D02*
X112935247Y-89521329D01*
X112935247Y-89521329D02*
X112791817Y-89579919D01*
X112791817Y-89579919D02*
X112653999Y-89642158D01*
X112653999Y-89642158D02*
X112518883Y-89709110D01*
X112518883Y-89709110D02*
X112386572Y-89780671D01*
X112386572Y-89780671D02*
X112259893Y-89855077D01*
X112259893Y-89855077D02*
X112136763Y-89933263D01*
X112136763Y-89933263D02*
X112017882Y-90014606D01*
X112017882Y-90014606D02*
X111902608Y-90099361D01*
X111902608Y-90099361D02*
X111789754Y-90188384D01*
X111789754Y-90188384D02*
X111681258Y-90280074D01*
X111681258Y-90280074D02*
X111575365Y-90375845D01*
X111575365Y-90375845D02*
X111472783Y-90475109D01*
X111472783Y-90475109D02*
X111373596Y-90577765D01*
X111373596Y-90577765D02*
X111277903Y-90683730D01*
X111277903Y-90683730D02*
X111185792Y-90792913D01*
X111185792Y-90792913D02*
X111097353Y-90905220D01*
X111097353Y-90905220D02*
X111012682Y-91020560D01*
X111012682Y-91020560D02*
X110930114Y-91141504D01*
X110930114Y-91141504D02*
X110851670Y-91265424D01*
X110851670Y-91265424D02*
X110777451Y-91392226D01*
X110777451Y-91392226D02*
X110706083Y-91524658D01*
X110706083Y-91524658D02*
X110639670Y-91659165D01*
X110639670Y-91659165D02*
X110577294Y-91797823D01*
X110577294Y-91797823D02*
X110518917Y-91941364D01*
X110518917Y-91941364D02*
X110464624Y-92090571D01*
X110464624Y-92090571D02*
X110415807Y-92242364D01*
X110415807Y-92242364D02*
X110370939Y-92402975D01*
X110370939Y-92402975D02*
X110332260Y-92566127D01*
X110332260Y-92566127D02*
X110299334Y-92734955D01*
X110299334Y-92734955D02*
X110272685Y-92909462D01*
X110272685Y-92909462D02*
X110252564Y-93092993D01*
X110252564Y-93092993D02*
X110239874Y-93288190D01*
X110239874Y-93288190D02*
X110236000Y-93472000D01*
X110236000Y-93472000D02*
X110236000Y-146000061D01*
D11*
X133785640Y-146812000D02*
G75*
G03X133785640Y-146812000I-9325640J0D01*
G01*
M02*
