M48
; DRILL file {KiCad 5.1.5+dfsg1-2build2} date Wed 18 May 2022 11:17:43 BST
; FORMAT={-:-/ absolute / inch / decimal}
; #@! TF.CreationDate,2022-05-18T11:17:43+01:00
; #@! TF.GenerationSoftware,Kicad,Pcbnew,5.1.5+dfsg1-2build2
; #@! TF.FileFunction,Plated,1,2,PTH
FMAT,2
INCH
T1C0.0394
%
G90
G05
T1
X5.0433Y-4.089
X5.1256Y-3.9917
X5.1278Y-4.0646
X5.1409Y-3.8161
X5.1953Y-4.4933
X5.2331Y-4.6012
X5.2484Y-5.0165
X5.2665Y-4.09
X4.7Y-4.75
X4.7Y-4.85
X4.7Y-4.95
X4.7Y-5.05
X4.85Y-4.75
X4.85Y-4.85
X4.85Y-4.95
X4.85Y-5.05
X5.15Y-4.75
X5.15Y-4.85
X5.15Y-4.95
X5.15Y-5.05
X5.0Y-4.75
X5.0Y-4.85
X5.0Y-4.95
X5.0Y-5.05
T0
M30
