M48
; DRILL file {KiCad 5.1.5+dfsg1-2build2} date Fri Apr 22 15:10:27 2022
; FORMAT={-:-/ absolute / inch / decimal}
; #@! TF.CreationDate,2022-04-22T15:10:27+01:00
; #@! TF.GenerationSoftware,Kicad,Pcbnew,5.1.5+dfsg1-2build2
; #@! TF.FileFunction,Plated,1,2,PTH
FMAT,2
INCH
T1C0.0394
%
G90
G05
T1
X4.64Y-4.1
X4.84Y-4.1
X4.84Y-4.1
X4.9746Y-4.586
X4.9888Y-4.06
X5.0439Y-4.6246
X5.1431Y-4.4113
X5.2408Y-4.6674
X5.3004Y-4.1396
X5.32Y-4.22
X5.36Y-4.54
X4.74Y-5.04
X4.84Y-5.04
X4.94Y-5.04
X5.04Y-5.04
X4.78Y-3.7
X4.88Y-3.7
X4.98Y-3.7
X5.08Y-3.7
X4.74Y-5.18
X4.84Y-5.18
X4.94Y-5.18
X5.04Y-5.18
X4.74Y-4.88
X4.84Y-4.88
X4.94Y-4.88
X5.04Y-4.88
X4.53Y-3.93
X4.53Y-4.03
X4.74Y-4.73
X4.84Y-4.73
X4.94Y-4.73
X5.04Y-4.73
T0
M30
