( pcb2gcode 2.4.0 )
( Software-independent Gcode )
( This file uses a mill head of 1.00000mm to drill the 1 hole sizes. )
( Hole sizes: [1.00076mm] )

G94       (Millimeters per minute feed rate.)
G21       (Units == Millimeters.)
G90       (Absolute coordinates.)
S15000    (RPM spindle speed.)

G01 F20.00000 (Feedrate)
G00 Z10.00000 (Retract to tool change height)
T1
M5        (Spindle stop.)
G04 P1.00000
(MSG, Change tool bit to drill size 1.00000mm)
M6        (Tool change.)
M0        (Temporary machine stop.)
M3        (Spindle on clockwise.)
G04 P1.00000
G00 Z2.00000

( Piece #1, position [0;0] )

G0 X3.56011 Y25.80983
G1 Z-2.50000 F10.00000
G1 Z2.00000 F10.00000

G0 X3.56011 Y28.34983
G1 Z-2.50000 F10.00000
G1 Z2.00000 F10.00000

G0 X3.56011 Y30.88983
G1 Z-2.50000 F10.00000
G1 Z2.00000 F10.00000

G0 X3.56011 Y33.42983
G1 Z-2.50000 F10.00000
G1 Z2.00000 F10.00000

G0 X7.37011 Y33.42983
G1 Z-2.50000 F10.00000
G1 Z2.00000 F10.00000

G0 X7.37011 Y30.88983
G1 Z-2.50000 F10.00000
G1 Z2.00000 F10.00000

G0 X7.37011 Y28.34983
G1 Z-2.50000 F10.00000
G1 Z2.00000 F10.00000

G0 X7.37011 Y25.80983
G1 Z-2.50000 F10.00000
G1 Z2.00000 F10.00000

G0 X11.18011 Y28.34983
G1 Z-2.50000 F10.00000
G1 Z2.00000 F10.00000

G0 X11.18011 Y25.80983
G1 Z-2.50000 F10.00000
G1 Z2.00000 F10.00000

G0 X14.99011 Y25.80983
G1 Z-2.50000 F10.00000
G1 Z2.00000 F10.00000

G0 X17.48947 Y26.66073
G1 Z-2.50000 F10.00000
G1 Z2.00000 F10.00000

G0 X14.99011 Y28.34983
G1 Z-2.50000 F10.00000
G1 Z2.00000 F10.00000

G0 X14.99011 Y30.88983
G1 Z-2.50000 F10.00000
G1 Z2.00000 F10.00000

G0 X11.18011 Y30.88983
G1 Z-2.50000 F10.00000
G1 Z2.00000 F10.00000

G0 X11.18011 Y33.42983
G1 Z-2.50000 F10.00000
G1 Z2.00000 F10.00000

G0 X14.99011 Y33.42983
G1 Z-2.50000 F10.00000
G1 Z2.00000 F10.00000

G0 X17.10085 Y37.20935
G1 Z-2.50000 F10.00000
G1 Z2.00000 F10.00000

G0 X16.14073 Y39.95001
G1 Z-2.50000 F10.00000
G1 Z2.00000 F10.00000

G0 X17.94921 Y50.19383
G1 Z-2.50000 F10.00000
G1 Z2.00000 F10.00000

G0 X14.42623 Y50.83899
G1 Z-2.50000 F10.00000
G1 Z2.00000 F10.00000

G0 X12.27993 Y50.21923
G1 Z-2.50000 F10.00000
G1 Z2.00000 F10.00000

G0 X14.37035 Y52.69065
G1 Z-2.50000 F10.00000
G1 Z2.00000 F10.00000

G0 X14.75897 Y57.15089
G1 Z-2.50000 F10.00000
G1 Z2.00000 F10.00000

( Piece #2, position [1;0] )

G0 X24.35998 Y25.80983
G1 Z-2.50000 F10.00000
G1 Z2.00000 F10.00000

G0 X24.35998 Y28.34983
G1 Z-2.50000 F10.00000
G1 Z2.00000 F10.00000

G0 X24.35998 Y30.88983
G1 Z-2.50000 F10.00000
G1 Z2.00000 F10.00000

G0 X24.35998 Y33.42983
G1 Z-2.50000 F10.00000
G1 Z2.00000 F10.00000

G0 X28.16998 Y33.42983
G1 Z-2.50000 F10.00000
G1 Z2.00000 F10.00000

G0 X28.16998 Y30.88983
G1 Z-2.50000 F10.00000
G1 Z2.00000 F10.00000

G0 X28.16998 Y28.34983
G1 Z-2.50000 F10.00000
G1 Z2.00000 F10.00000

G0 X28.16998 Y25.80983
G1 Z-2.50000 F10.00000
G1 Z2.00000 F10.00000

G0 X31.97998 Y28.34983
G1 Z-2.50000 F10.00000
G1 Z2.00000 F10.00000

G0 X31.97998 Y25.80983
G1 Z-2.50000 F10.00000
G1 Z2.00000 F10.00000

G0 X35.78998 Y25.80983
G1 Z-2.50000 F10.00000
G1 Z2.00000 F10.00000

G0 X38.28934 Y26.66073
G1 Z-2.50000 F10.00000
G1 Z2.00000 F10.00000

G0 X35.78998 Y28.34983
G1 Z-2.50000 F10.00000
G1 Z2.00000 F10.00000

G0 X35.78998 Y30.88983
G1 Z-2.50000 F10.00000
G1 Z2.00000 F10.00000

G0 X31.97998 Y30.88983
G1 Z-2.50000 F10.00000
G1 Z2.00000 F10.00000

G0 X31.97998 Y33.42983
G1 Z-2.50000 F10.00000
G1 Z2.00000 F10.00000

G0 X35.78998 Y33.42983
G1 Z-2.50000 F10.00000
G1 Z2.00000 F10.00000

G0 X37.90072 Y37.20935
G1 Z-2.50000 F10.00000
G1 Z2.00000 F10.00000

G0 X36.94060 Y39.95001
G1 Z-2.50000 F10.00000
G1 Z2.00000 F10.00000

G0 X38.74908 Y50.19383
G1 Z-2.50000 F10.00000
G1 Z2.00000 F10.00000

G0 X35.22610 Y50.83899
G1 Z-2.50000 F10.00000
G1 Z2.00000 F10.00000

G0 X33.07980 Y50.21923
G1 Z-2.50000 F10.00000
G1 Z2.00000 F10.00000

G0 X35.17022 Y52.69065
G1 Z-2.50000 F10.00000
G1 Z2.00000 F10.00000

G0 X35.55884 Y57.15089
G1 Z-2.50000 F10.00000
G1 Z2.00000 F10.00000

( Piece #3, position [2;0] )

G0 X45.15986 Y25.80983
G1 Z-2.50000 F10.00000
G1 Z2.00000 F10.00000

G0 X45.15986 Y28.34983
G1 Z-2.50000 F10.00000
G1 Z2.00000 F10.00000

G0 X45.15986 Y30.88983
G1 Z-2.50000 F10.00000
G1 Z2.00000 F10.00000

G0 X45.15986 Y33.42983
G1 Z-2.50000 F10.00000
G1 Z2.00000 F10.00000

G0 X48.96986 Y33.42983
G1 Z-2.50000 F10.00000
G1 Z2.00000 F10.00000

G0 X48.96986 Y30.88983
G1 Z-2.50000 F10.00000
G1 Z2.00000 F10.00000

G0 X48.96986 Y28.34983
G1 Z-2.50000 F10.00000
G1 Z2.00000 F10.00000

G0 X48.96986 Y25.80983
G1 Z-2.50000 F10.00000
G1 Z2.00000 F10.00000

G0 X52.77986 Y28.34983
G1 Z-2.50000 F10.00000
G1 Z2.00000 F10.00000

G0 X52.77986 Y25.80983
G1 Z-2.50000 F10.00000
G1 Z2.00000 F10.00000

G0 X56.58986 Y25.80983
G1 Z-2.50000 F10.00000
G1 Z2.00000 F10.00000

G0 X59.08922 Y26.66073
G1 Z-2.50000 F10.00000
G1 Z2.00000 F10.00000

G0 X56.58986 Y28.34983
G1 Z-2.50000 F10.00000
G1 Z2.00000 F10.00000

G0 X56.58986 Y30.88983
G1 Z-2.50000 F10.00000
G1 Z2.00000 F10.00000

G0 X52.77986 Y30.88983
G1 Z-2.50000 F10.00000
G1 Z2.00000 F10.00000

G0 X52.77986 Y33.42983
G1 Z-2.50000 F10.00000
G1 Z2.00000 F10.00000

G0 X56.58986 Y33.42983
G1 Z-2.50000 F10.00000
G1 Z2.00000 F10.00000

G0 X58.70060 Y37.20935
G1 Z-2.50000 F10.00000
G1 Z2.00000 F10.00000

G0 X57.74048 Y39.95001
G1 Z-2.50000 F10.00000
G1 Z2.00000 F10.00000

G0 X59.54896 Y50.19383
G1 Z-2.50000 F10.00000
G1 Z2.00000 F10.00000

G0 X56.02598 Y50.83899
G1 Z-2.50000 F10.00000
G1 Z2.00000 F10.00000

G0 X53.87968 Y50.21923
G1 Z-2.50000 F10.00000
G1 Z2.00000 F10.00000

G0 X55.97010 Y52.69065
G1 Z-2.50000 F10.00000
G1 Z2.00000 F10.00000

G0 X56.35872 Y57.15089
G1 Z-2.50000 F10.00000
G1 Z2.00000 F10.00000

G00 Z10.000000 ( All done -- retract )

M5      (Spindle off.)
G04 P1.000000
M9      (Coolant off.)
M2      (Program end.)

