(module SolderWirePad_01x01_SMD_2mm (layer F.Cu) (tedit 62570569)
  (attr smd)
  (fp_text reference J? (at 0 -2.54) (layer F.SilkS)
    (effects (font (size 1 1) (thickness 0.15)))
  )
  (fp_text value ? (at 0 2.54) (layer F.Fab)
    (effects (font (size 1 1) (thickness 0.15)))
  )
  (pad "" smd circle (at 0 0) (size 2 2) (layers F.Cu F.Paste F.Mask))
)
