EESchema Schematic File Version 4
EELAYER 30 0
EELAYER END
$Descr A4 11693 8268
encoding utf-8
Sheet 1 1
Title ""
Date ""
Rev ""
Comp ""
Comment1 ""
Comment2 ""
Comment3 ""
Comment4 ""
$EndDescr
$Comp
L MCU_Microchip_ATtiny:ATtiny84-20SSU U1
U 1 1 624F1853
P 4250 2650
F 0 "U1" H 3721 2696 50  0000 R CNN
F 1 "ATtiny84-20SSU" H 3721 2605 50  0000 R CNN
F 2 "Package_SO:SOIC-14_3.9x8.7mm_P1.27mm" H 4250 2650 50  0001 C CIN
F 3 "http://ww1.microchip.com/downloads/en/DeviceDoc/doc8006.pdf" H 4250 2650 50  0001 C CNN
	1    4250 2650
	1    0    0    -1  
$EndComp
$Comp
L Device:R R1
U 1 1 624F7D6D
P 4900 3400
F 0 "R1" H 4970 3446 50  0000 L CNN
F 1 "R" H 4970 3355 50  0000 L CNN
F 2 "Resistor_SMD:R_0805_2012Metric_Pad1.15x1.40mm_HandSolder" V 4830 3400 50  0001 C CNN
F 3 "~" H 4900 3400 50  0001 C CNN
	1    4900 3400
	1    0    0    -1  
$EndComp
Wire Wire Line
	4900 3250 4850 3250
Text Label 4900 2650 0    50   ~ 0
SDA
Text Label 4900 2050 0    50   ~ 0
SCL2
Text Label 4900 2150 0    50   ~ 0
SDA2_1
$Comp
L power:Earth #PWR0105
U 1 1 62507AEE
P 4250 3550
F 0 "#PWR0105" H 4250 3300 50  0001 C CNN
F 1 "Earth" H 4250 3400 50  0001 C CNN
F 2 "" H 4250 3550 50  0001 C CNN
F 3 "~" H 4250 3550 50  0001 C CNN
	1    4250 3550
	1    0    0    -1  
$EndComp
$Comp
L power:Earth #PWR0106
U 1 1 62508307
P 6550 3500
F 0 "#PWR0106" H 6550 3250 50  0001 C CNN
F 1 "Earth" H 6550 3350 50  0001 C CNN
F 2 "" H 6550 3500 50  0001 C CNN
F 3 "~" H 6550 3500 50  0001 C CNN
	1    6550 3500
	1    0    0    -1  
$EndComp
$Comp
L power:Earth #PWR0107
U 1 1 62509E3E
P 7300 2950
F 0 "#PWR0107" H 7300 2700 50  0001 C CNN
F 1 "Earth" H 7300 2800 50  0001 C CNN
F 2 "" H 7300 2950 50  0001 C CNN
F 3 "~" H 7300 2950 50  0001 C CNN
	1    7300 2950
	0    1    -1   0   
$EndComp
Text Label 5250 2550 0    50   ~ 0
MISO
Text Label 4850 3250 0    50   ~ 0
RESET
$Comp
L Device:C C1
U 1 1 62516635
P 8800 1600
F 0 "C1" H 8915 1646 50  0000 L CNN
F 1 "C" H 8915 1555 50  0000 L CNN
F 2 "Capacitor_SMD:C_0805_2012Metric_Pad1.15x1.40mm_HandSolder" H 8838 1450 50  0001 C CNN
F 3 "~" H 8800 1600 50  0001 C CNN
	1    8800 1600
	1    0    0    -1  
$EndComp
$Comp
L power:Earth #PWR0112
U 1 1 62517399
P 8800 1750
F 0 "#PWR0112" H 8800 1500 50  0001 C CNN
F 1 "Earth" H 8800 1600 50  0001 C CNN
F 2 "" H 8800 1750 50  0001 C CNN
F 3 "~" H 8800 1750 50  0001 C CNN
	1    8800 1750
	1    0    0    -1  
$EndComp
$Comp
L Device:R R2
U 1 1 624F3EA5
P 6400 2950
F 0 "R2" V 6193 2950 50  0000 C CNN
F 1 "100R" V 6284 2950 50  0000 C CNN
F 2 "Resistor_SMD:R_0805_2012Metric_Pad1.15x1.40mm_HandSolder" V 6330 2950 50  0001 C CNN
F 3 "~" H 6400 2950 50  0001 C CNN
	1    6400 2950
	0    1    1    0   
$EndComp
$Comp
L Connector:Conn_01x01_Female J4
U 1 1 625AD175
P 5250 3650
F 0 "J4" H 5278 3676 50  0000 L CNN
F 1 "ISP RESET" V 5450 3500 50  0000 L CNN
F 2 "Connector_PinHeader_2.54mm:PinHeader_1x01_P2.54mm_Vertical" H 5250 3650 50  0001 C CNN
F 3 "~" H 5250 3650 50  0001 C CNN
	1    5250 3650
	0    1    1    0   
$EndComp
Wire Wire Line
	5250 3450 5250 3250
$Comp
L Device:R R8
U 1 1 625C0F6D
P 5500 1850
F 0 "R8" H 5570 1896 50  0000 L CNN
F 1 "4K7" H 5570 1805 50  0000 L CNN
F 2 "Resistor_SMD:R_0805_2012Metric_Pad1.15x1.40mm_HandSolder" V 5430 1850 50  0001 C CNN
F 3 "~" H 5500 1850 50  0001 C CNN
	1    5500 1850
	1    0    0    -1  
$EndComp
$Comp
L Device:R R7
U 1 1 625C166D
P 5800 1850
F 0 "R7" H 5870 1896 50  0000 L CNN
F 1 "4K7" H 5870 1805 50  0000 L CNN
F 2 "Resistor_SMD:R_0805_2012Metric_Pad1.15x1.40mm_HandSolder" V 5730 1850 50  0001 C CNN
F 3 "~" H 5800 1850 50  0001 C CNN
	1    5800 1850
	1    0    0    -1  
$EndComp
Text Label 4900 2450 0    50   ~ 0
SCL
Wire Wire Line
	5500 1600 5500 1700
Text Label 4900 2750 0    50   ~ 0
HAPTIC
$Comp
L Device:R R6
U 1 1 625F8A8C
P 8700 3100
F 0 "R6" V 8493 3100 50  0000 C CNN
F 1 "100R" V 8584 3100 50  0000 C CNN
F 2 "Resistor_SMD:R_0805_2012Metric_Pad1.15x1.40mm_HandSolder" V 8630 3100 50  0001 C CNN
F 3 "~" H 8700 3100 50  0001 C CNN
	1    8700 3100
	0    1    1    0   
$EndComp
$Comp
L Device:R R5
U 1 1 625FA6BF
P 8450 3350
F 0 "R5" H 8520 3396 50  0000 L CNN
F 1 "10K" H 8520 3305 50  0000 L CNN
F 2 "Resistor_SMD:R_0805_2012Metric_Pad1.15x1.40mm_HandSolder" V 8380 3350 50  0001 C CNN
F 3 "~" H 8450 3350 50  0001 C CNN
	1    8450 3350
	1    0    0    -1  
$EndComp
$Comp
L Motor:Motor_DC M1
U 1 1 625FBF0C
P 9150 2450
F 0 "M1" H 9308 2446 50  0000 L CNN
F 1 "Motor_DC" H 9308 2355 50  0000 L CNN
F 2 "Connector_PinHeader_2.54mm:PinHeader_2x01_P2.54mm_Vertical" H 9150 2360 50  0001 C CNN
F 3 "~" H 9150 2360 50  0001 C CNN
	1    9150 2450
	1    0    0    -1  
$EndComp
Wire Wire Line
	8550 3100 8450 3100
Wire Wire Line
	8450 3200 8450 3100
Connection ~ 8450 3100
Wire Wire Line
	8450 3100 7950 3100
Wire Wire Line
	9150 2900 9150 2850
Wire Wire Line
	8500 2850 9150 2850
Connection ~ 9150 2850
Wire Wire Line
	9150 2850 9150 2750
Wire Wire Line
	8500 2150 9150 2150
Wire Wire Line
	9150 2250 9150 2150
Connection ~ 9150 2150
Wire Wire Line
	9150 2150 9150 1950
Wire Wire Line
	9150 3300 9150 3500
$Comp
L power:Earth #PWR0110
U 1 1 6260ED8F
P 9150 3500
F 0 "#PWR0110" H 9150 3250 50  0001 C CNN
F 1 "Earth" H 9150 3350 50  0001 C CNN
F 2 "" H 9150 3500 50  0001 C CNN
F 3 "~" H 9150 3500 50  0001 C CNN
	1    9150 3500
	1    0    0    -1  
$EndComp
$Comp
L power:+3.3V #PWR0113
U 1 1 62610767
P 9150 1950
F 0 "#PWR0113" H 9150 1800 50  0001 C CNN
F 1 "+3.3V" H 9165 2123 50  0000 C CNN
F 2 "" H 9150 1950 50  0001 C CNN
F 3 "" H 9150 1950 50  0001 C CNN
	1    9150 1950
	1    0    0    -1  
$EndComp
$Comp
L power:Earth #PWR0114
U 1 1 62610DC9
P 8450 3500
F 0 "#PWR0114" H 8450 3250 50  0001 C CNN
F 1 "Earth" H 8450 3350 50  0001 C CNN
F 2 "" H 8450 3500 50  0001 C CNN
F 3 "~" H 8450 3500 50  0001 C CNN
	1    8450 3500
	1    0    0    -1  
$EndComp
Text Label 8050 3100 0    50   ~ 0
HAPTIC
Text Label 4900 2250 0    50   ~ 0
SDA2_2
Text Label 4900 2350 0    50   ~ 0
SDA2_3
Text Label 4900 2550 0    50   ~ 0
SDA2_4
Wire Wire Line
	4850 2650 5500 2650
Wire Wire Line
	4900 3250 5250 3250
Connection ~ 4900 3250
Wire Wire Line
	5650 2750 5650 3650
Wire Wire Line
	5650 3650 7950 3650
Wire Wire Line
	7950 3650 7950 3100
Wire Wire Line
	4850 2750 5650 2750
Wire Wire Line
	5500 2000 5500 2650
Connection ~ 5500 2650
Wire Wire Line
	5800 2000 5800 2450
Connection ~ 5800 2450
Wire Wire Line
	5650 1500 5650 1600
Wire Wire Line
	5800 1600 5650 1600
Wire Wire Line
	5800 1600 5800 1700
Connection ~ 5650 1600
Wire Wire Line
	5650 1600 5500 1600
Wire Wire Line
	4850 2450 5800 2450
Wire Wire Line
	6900 2450 6900 2750
Wire Wire Line
	5800 2450 6900 2450
Wire Wire Line
	4850 2150 6350 2150
Wire Wire Line
	4850 2350 7400 2350
Wire Wire Line
	4850 2550 7900 2550
Wire Wire Line
	5500 2650 7300 2650
Wire Wire Line
	6900 2750 7300 2750
$Comp
L power:+3.3V #PWR0102
U 1 1 6272A897
P 7300 2850
F 0 "#PWR0102" H 7300 2700 50  0001 C CNN
F 1 "+3.3V" V 7315 2978 50  0000 L CNN
F 2 "" H 7300 2850 50  0001 C CNN
F 3 "" H 7300 2850 50  0001 C CNN
	1    7300 2850
	0    -1   -1   0   
$EndComp
$Comp
L power:+3.3V #PWR0103
U 1 1 6272CB10
P 4250 1750
F 0 "#PWR0103" H 4250 1600 50  0001 C CNN
F 1 "+3.3V" H 4265 1923 50  0000 C CNN
F 2 "" H 4250 1750 50  0001 C CNN
F 3 "" H 4250 1750 50  0001 C CNN
	1    4250 1750
	1    0    0    -1  
$EndComp
$Comp
L power:+3.3V #PWR0104
U 1 1 6272D0E1
P 5650 1500
F 0 "#PWR0104" H 5650 1350 50  0001 C CNN
F 1 "+3.3V" H 5665 1673 50  0000 C CNN
F 2 "" H 5650 1500 50  0001 C CNN
F 3 "" H 5650 1500 50  0001 C CNN
	1    5650 1500
	1    0    0    -1  
$EndComp
$Comp
L power:+3.3V #PWR0109
U 1 1 6272F0AF
P 8800 1450
F 0 "#PWR0109" H 8800 1300 50  0001 C CNN
F 1 "+3.3V" H 8815 1623 50  0000 C CNN
F 2 "" H 8800 1450 50  0001 C CNN
F 3 "" H 8800 1450 50  0001 C CNN
	1    8800 1450
	1    0    0    -1  
$EndComp
$Comp
L power:+3.3V #PWR0111
U 1 1 62733968
P 4900 3550
F 0 "#PWR0111" H 4900 3400 50  0001 C CNN
F 1 "+3.3V" H 4915 3723 50  0000 C CNN
F 2 "" H 4900 3550 50  0001 C CNN
F 3 "" H 4900 3550 50  0001 C CNN
	1    4900 3550
	-1   0    0    1   
$EndComp
Wire Wire Line
	6550 2950 6550 3500
$Comp
L Device:LED D1
U 1 1 62794753
P 5950 2950
F 0 "D1" H 5943 2695 50  0000 C CNN
F 1 "LED" H 5943 2786 50  0000 C CNN
F 2 "LED_SMD:LED_0805_2012Metric_Pad1.15x1.40mm_HandSolder" H 5950 2950 50  0001 C CNN
F 3 "~" H 5950 2950 50  0001 C CNN
	1    5950 2950
	-1   0    0    1   
$EndComp
Wire Wire Line
	6100 2950 6250 2950
Wire Wire Line
	4850 2950 5800 2950
$Comp
L Connector_Generic:Conn_01x04 J5
U 1 1 625A9D64
P 7500 2750
F 0 "J5" H 7580 2742 50  0000 L CNN
F 1 "Parent Pendant" H 7580 2651 50  0000 L CNN
F 2 "khipu:JackSMD" H 7500 2750 50  0001 C CNN
F 3 "~" H 7500 2750 50  0001 C CNN
	1    7500 2750
	1    0    0    -1  
$EndComp
$Comp
L power:Earth #PWR0101
U 1 1 625B986A
P 7900 1050
F 0 "#PWR0101" H 7900 800 50  0001 C CNN
F 1 "Earth" H 7900 900 50  0001 C CNN
F 2 "" H 7900 1050 50  0001 C CNN
F 3 "~" H 7900 1050 50  0001 C CNN
	1    7900 1050
	0    -1   1    0   
$EndComp
$Comp
L power:+3.3V #PWR0108
U 1 1 625B9872
P 7900 950
F 0 "#PWR0108" H 7900 800 50  0001 C CNN
F 1 "+3.3V" V 7915 1078 50  0000 L CNN
F 2 "" H 7900 950 50  0001 C CNN
F 3 "" H 7900 950 50  0001 C CNN
	1    7900 950 
	0    1    1    0   
$EndComp
$Comp
L Connector_Generic:Conn_01x04 J6
U 1 1 625B9878
P 7700 1150
F 0 "J6" H 7780 1142 50  0000 L CNN
F 1 "Pendant 4" H 7400 800 50  0000 L CNN
F 2 "Connector_PinHeader_2.54mm:PinHeader_1x04_P2.54mm_Vertical" H 7700 1150 50  0001 C CNN
F 3 "~" H 7700 1150 50  0001 C CNN
	1    7700 1150
	-1   0    0    1   
$EndComp
$Comp
L power:Earth #PWR0115
U 1 1 625BF882
P 7400 1050
F 0 "#PWR0115" H 7400 800 50  0001 C CNN
F 1 "Earth" H 7400 900 50  0001 C CNN
F 2 "" H 7400 1050 50  0001 C CNN
F 3 "~" H 7400 1050 50  0001 C CNN
	1    7400 1050
	0    -1   1    0   
$EndComp
$Comp
L power:+3.3V #PWR0116
U 1 1 625BF888
P 7400 950
F 0 "#PWR0116" H 7400 800 50  0001 C CNN
F 1 "+3.3V" V 7415 1078 50  0000 L CNN
F 2 "" H 7400 950 50  0001 C CNN
F 3 "" H 7400 950 50  0001 C CNN
	1    7400 950 
	0    1    1    0   
$EndComp
$Comp
L Connector_Generic:Conn_01x04 J3
U 1 1 625BF88E
P 7200 1150
F 0 "J3" H 7280 1142 50  0000 L CNN
F 1 "Pendant 3" H 6950 800 50  0000 L CNN
F 2 "Connector_PinHeader_2.54mm:PinHeader_1x04_P2.54mm_Vertical" H 7200 1150 50  0001 C CNN
F 3 "~" H 7200 1150 50  0001 C CNN
	1    7200 1150
	-1   0    0    1   
$EndComp
$Comp
L power:Earth #PWR0117
U 1 1 625C0C64
P 6900 1050
F 0 "#PWR0117" H 6900 800 50  0001 C CNN
F 1 "Earth" H 6900 900 50  0001 C CNN
F 2 "" H 6900 1050 50  0001 C CNN
F 3 "~" H 6900 1050 50  0001 C CNN
	1    6900 1050
	0    -1   1    0   
$EndComp
$Comp
L power:+3.3V #PWR0118
U 1 1 625C0C6A
P 6900 950
F 0 "#PWR0118" H 6900 800 50  0001 C CNN
F 1 "+3.3V" V 6915 1078 50  0000 L CNN
F 2 "" H 6900 950 50  0001 C CNN
F 3 "" H 6900 950 50  0001 C CNN
	1    6900 950 
	0    1    1    0   
$EndComp
$Comp
L Connector_Generic:Conn_01x04 J2
U 1 1 625C0C70
P 6700 1150
F 0 "J2" H 6780 1142 50  0000 L CNN
F 1 "Pendant 2" H 6500 800 50  0000 L CNN
F 2 "Connector_PinHeader_2.54mm:PinHeader_1x04_P2.54mm_Vertical" H 6700 1150 50  0001 C CNN
F 3 "~" H 6700 1150 50  0001 C CNN
	1    6700 1150
	-1   0    0    1   
$EndComp
$Comp
L power:Earth #PWR0119
U 1 1 625C1B70
P 6350 1050
F 0 "#PWR0119" H 6350 800 50  0001 C CNN
F 1 "Earth" H 6350 900 50  0001 C CNN
F 2 "" H 6350 1050 50  0001 C CNN
F 3 "~" H 6350 1050 50  0001 C CNN
	1    6350 1050
	0    -1   1    0   
$EndComp
$Comp
L power:+3.3V #PWR0120
U 1 1 625C1B76
P 6350 950
F 0 "#PWR0120" H 6350 800 50  0001 C CNN
F 1 "+3.3V" V 6365 1078 50  0000 L CNN
F 2 "" H 6350 950 50  0001 C CNN
F 3 "" H 6350 950 50  0001 C CNN
	1    6350 950 
	0    1    1    0   
$EndComp
Wire Wire Line
	7900 1250 7900 2550
Wire Wire Line
	8000 2050 8000 1150
Wire Wire Line
	8000 1150 7900 1150
Wire Wire Line
	4850 2250 6900 2250
$Comp
L Connector_Generic:Conn_01x04 J1
U 1 1 625C1B7C
P 6150 1150
F 0 "J1" H 6230 1142 50  0000 L CNN
F 1 "Pendant 1" H 5950 800 50  0000 L CNN
F 2 "Connector_PinHeader_2.54mm:PinHeader_1x04_P2.54mm_Vertical" H 6150 1150 50  0001 C CNN
F 3 "~" H 6150 1150 50  0001 C CNN
	1    6150 1150
	-1   0    0    1   
$EndComp
$Comp
L Transistor_BJT:MMBT3904 Q1
U 1 1 62632B16
P 9050 3100
F 0 "Q1" H 9241 3146 50  0000 L CNN
F 1 "MMBT3904" H 9241 3055 50  0000 L CNN
F 2 "Package_TO_SOT_SMD:SOT-23_Handsoldering" H 9250 3025 50  0001 L CIN
F 3 "https://www.fairchildsemi.com/datasheets/2N/2N3904.pdf" H 9050 3100 50  0001 L CNN
	1    9050 3100
	1    0    0    -1  
$EndComp
$Comp
L Device:D_Schottky D2
U 1 1 62638154
P 8500 2500
F 0 "D2" V 8454 2579 50  0000 L CNN
F 1 "D_Schottky" V 8545 2579 50  0000 L CNN
F 2 "Diode_SMD:D_SMA_Handsoldering" H 8500 2500 50  0001 C CNN
F 3 "~" H 8500 2500 50  0001 C CNN
	1    8500 2500
	0    1    1    0   
$EndComp
Wire Wire Line
	8500 2650 8500 2850
Wire Wire Line
	8500 2150 8500 2350
Wire Wire Line
	7400 1150 7500 1150
Wire Wire Line
	7500 2050 8000 2050
Connection ~ 7500 2050
Wire Wire Line
	7500 1150 7500 2050
Wire Wire Line
	7400 1250 7400 2350
Wire Wire Line
	4850 2050 6450 2050
Connection ~ 6450 2050
Wire Wire Line
	6450 1150 6450 2050
Wire Wire Line
	7000 2050 7500 2050
Wire Wire Line
	6450 2050 7000 2050
Connection ~ 7000 2050
Wire Wire Line
	7000 1150 7000 2050
Wire Wire Line
	6900 1250 6900 2250
Wire Wire Line
	6900 1150 7000 1150
Wire Wire Line
	6350 1250 6350 2150
Wire Wire Line
	6350 1150 6450 1150
$EndSCHEMATC
